Statistical Models in R: Part 2
…
set.seed(58) #Set the random seed
data(ptitanic) #Call the data

titanic_data <-
ptitanic %>%
select(survived,pclass,sex,age) %>% #Select only required columns
mutate(age=as.numeric(age)) %>% #This is a fix, just for this data set
filter(complete.cases(.)) %>% #Remove all NA including rows
#Split the data into train and test
mutate(train_test = ifelse(runif(nrow(.)) < 0.25,"test","train")) %>%
tbl_df()

print(titanic_data)

## # A tibble: 1,046 x 5
##    survived pclass sex       age train_test
##    <fct>    <fct>  <fct>   <dbl> <chr>     
##  1 survived 1st    female 29.0   train     
##  2 survived 1st    male    0.917 test      
##  3 died     1st    female  2.00  train     
##  4 died     1st    male   30.0   train     
##  5 died     1st    female 25.0   train     
##  6 survived 1st    male   48.0   train     
##  7 survived 1st    female 63.0   test      
##  8 died     1st    male   39.0   train     
##  9 survived 1st    female 53.0   train     
## 10 died     1st    male   71.0   train     
## # ... with 1,036 more rows
…
