Tidyverse Intro: Travel and Weather - ggplot2
…
Tidyverse Intro: Travel and Weather - ggplot2

ETM 58D - Spring 2018

Mar 12, 2018

Introduction

This part of the exercise explains the basics of ggplot2. See the first part for preparations. We start directly from the data set.

travel_weather %>%
    tbl_df()

## # A tibble: 731 x 7
##     year month   day Amsterdam London   NYC Venice
##  * <dbl> <dbl> <dbl>     <dbl>  <dbl> <dbl>  <dbl>
##  1  2015  11.0  1.00      8.00   8.00  16.0  13.0 
##  2  2015  11.0  2.00     10.0   11.0   15.0  10.0 
##  3  2015  11.0  3.00      9.00  11.0   16.0   9.00
##  4  2015  11.0  4.00     12.0   11.0   17.0  10.0 
##  5  2015  11.0  5.00     13.0   13.0   18.0  12.0 
##  6  2015  11.0  6.00     16.0   14.0   21.0  13.0 
##  7  2015  11.0  7.00     16.0   14.0   17.0  14.0 
##  8  2015  11.0  8.00     12.0   12.0   11.0  13.0 
##  9  2015  11.0  9.00     13.0   12.0   11.0  11.0 
## 10  2015  11.0 10.0      14.0   14.0   12.0  11.0 
## # ... with 721 more rows
…
Lets color this chart a bit. If both Venice and London are warmer than Amsterdam, lets show it with some color.

travel_weather %>% mutate(VL_warmer_A = pmin(Venice, London) >= 
    Amsterdam)

## # A tibble: 731 x 8
##     year month   day Amsterdam London   NYC Venice VL_warmer_A
##    <dbl> <dbl> <dbl>     <dbl>  <dbl> <dbl>  <dbl> <lgl>      
##  1  2015  11.0  1.00      8.00   8.00  16.0  13.0  T          
##  2  2015  11.0  2.00     10.0   11.0   15.0  10.0  T          
##  3  2015  11.0  3.00      9.00  11.0   16.0   9.00 T          
##  4  2015  11.0  4.00     12.0   11.0   17.0  10.0  F          
##  5  2015  11.0  5.00     13.0   13.0   18.0  12.0  F          
##  6  2015  11.0  6.00     16.0   14.0   21.0  13.0  F          
##  7  2015  11.0  7.00     16.0   14.0   17.0  14.0  F          
##  8  2015  11.0  8.00     12.0   12.0   11.0  13.0  T          
##  9  2015  11.0  9.00     13.0   12.0   11.0  11.0  F          
## 10  2015  11.0 10.0      14.0   14.0   12.0  11.0  F          
## # ... with 721 more rows
…
