Introduction to Time Series Forecasting
…
Now, lets see some time series data. The data we are going to use is electricity consumption data which can be found in EPA effaflk / EXIST Transparency platform (click here). You can also download the sample data from 2015 to yesterday (May 6, 2018) from here.

Lets check the consumption data. The first column is a time index in year-month-day hour:minute:second format and the second column is the value column, in this case hourly electricity consumption of Turkey.

print(consumption_data)

## # A tibble: 20,904 x 2
##    date_time           consumption
##    <dttm>                    <dbl>
##  1 2015-12-18 00:00:00       30070
##  2 2015-12-18 01:00:00       28311
##  3 2015-12-18 02:00:00       27351
##  4 2015-12-18 03:00:00       26740
##  5 2015-12-18 04:00:00       26526
##  6 2015-12-18 05:00:00       27230
##  7 2015-12-18 06:00:00       28319
##  8 2015-12-18 07:00:00       29790
##  9 2015-12-18 08:00:00       34311
## 10 2015-12-18 09:00:00       37337
## # ... with 20,894 more rows
…
